v 20201211 2
C 40000 40000 0 0 0 title-B.sym
C 47800 45200 1 0 0 OPA445.sym
{
T 48000 47200 5 10 0 0 0 0 1
device=OPA445
T 49400 46600 5 10 1 1 0 0 1
refdes=U1
T 48000 47800 5 10 0 0 0 0 1
symversion=0.1
T 49400 46400 5 10 1 1 0 0 1
model-name=OPA445
}
C 48600 43400 1 0 0 gnd-1.sym
C 47900 48000 1 0 0 gnd-1.sym
C 47700 48500 1 0 0 vdc-1.sym
{
T 48300 49050 5 10 1 1 0 0 1
refdes=V1
T 48400 49350 5 10 0 0 0 0 1
device=VOLTAGE_SOURCE
T 48400 49550 5 10 0 0 0 0 1
footprint=none
T 48300 48850 5 10 1 1 0 0 1
value=DC 70V
}
N 48000 49700 48000 50100 4
N 48000 50100 48700 50100 4
N 48700 46800 48700 50100 4
N 48000 48500 48000 48300 4
N 48700 43700 48700 45200 4
C 52000 45900 1 0 0 resistor-1.sym
{
T 52300 46300 5 10 0 0 0 0 1
device=RESISTOR
T 52200 46200 5 10 1 1 0 0 1
refdes=Rload
T 52300 45700 5 10 1 1 0 0 1
value=500k
}
N 52900 44000 48700 44000 4
C 44200 44900 1 0 0 vdc-1.sym
{
T 44700 45150 5 10 1 1 0 0 1
refdes=V2
T 44900 45750 5 10 0 0 0 0 1
device=VOLTAGE_SOURCE
T 44900 45950 5 10 0 0 0 0 1
footprint=none
T 44700 44950 5 10 1 1 0 0 1
value=DC 1V
}
C 45700 44400 1 0 0 vdc-1.sym
{
T 46200 44650 5 10 1 1 0 0 1
refdes=V3
T 46400 45250 5 10 0 0 0 0 1
device=VOLTAGE_SOURCE
T 46400 45450 5 10 0 0 0 0 1
footprint=none
T 46200 44450 5 10 1 1 0 0 1
value=DC 2V
}
C 50500 45900 1 0 0 resistor-1.sym
{
T 50800 46300 5 10 0 0 0 0 1
device=RESISTOR
T 50700 46200 5 10 1 1 0 0 1
refdes=R1
T 50700 45800 5 10 1 1 0 0 1
value=1000
}
C 50500 44700 1 0 0 resistor-1.sym
{
T 50800 45100 5 10 0 0 0 0 1
device=RESISTOR
T 50700 45000 5 10 1 1 0 0 1
refdes=R2
T 50700 44600 5 10 1 1 0 0 1
value=9k
}
C 48900 47100 1 0 0 resistor-1.sym
{
T 49200 47500 5 10 0 0 0 0 1
device=RESISTOR
T 49100 47400 5 10 1 1 0 0 1
refdes=R3
T 48900 47100 5 10 1 1 0 0 1
value=10k
}
C 45500 46100 1 0 0 resistor-1.sym
{
T 45800 46500 5 10 0 0 0 0 1
device=RESISTOR
T 45700 46400 5 10 1 1 0 0 1
refdes=R4
T 45500 46100 5 10 1 1 0 0 1
value=100k
}
C 46600 45700 1 0 0 resistor-1.sym
{
T 46900 46100 5 10 0 0 0 0 1
device=RESISTOR
T 46800 46000 5 10 1 1 0 0 1
refdes=R5
T 46600 45700 5 10 1 1 0 0 1
value=100k
}
N 46000 44400 46000 44000 4
N 44500 44000 48700 44000 4
N 44500 44900 44500 44000 4
N 44500 46100 44500 46200 4
N 44500 46200 45500 46200 4
N 46400 46200 47800 46200 4
N 47800 45800 47500 45800 4
N 46600 45800 46000 45800 4
N 46000 45800 46000 45600 4
N 49500 46000 50500 46000 4
N 51400 46000 52000 46000 4
{
T 51400 46000 5 10 1 1 0 0 1
netname=output
}
N 52000 46000 52000 44800 4
N 52000 44800 51400 44800 4
N 50500 44800 47600 44800 4
N 47600 44800 47600 45800 4
N 48900 47200 47600 47200 4
N 47600 47200 47600 46200 4
N 49800 47200 50100 47200 4
N 50100 47200 50100 46000 4
C 40500 49700 1 0 0 spice-model-1.sym
{
T 40600 50400 5 10 0 1 0 0 1
device=model
T 40600 50300 5 10 1 1 0 0 1
refdes=A1
T 41800 50000 5 10 1 1 0 0 1
model-name=OPA445
T 41000 49800 5 10 1 1 0 0 1
file=./../../models/OPA445.lib
}
C 40500 48900 1 0 0 spice-directive-1.sym
{
T 40600 49200 5 10 0 1 0 0 1
device=directive
T 40600 49300 5 10 1 1 0 0 1
refdes=A2
T 40600 49000 5 10 1 1 0 0 1
file=ngspiceCommands.run
}
C 52600 44300 1 0 0 vdc-1.sym
{
T 53100 44550 5 10 1 1 0 0 1
refdes=Vout
T 53300 45150 5 10 0 0 0 0 1
device=VOLTAGE_SOURCE
T 53300 45350 5 10 0 0 0 0 1
footprint=none
T 53100 44350 5 10 1 1 0 0 1
value=DC 7V
}
N 52900 45500 52900 46000 4
N 52900 44000 52900 44300 4
