v 20130925 2
C 40000 40000 0 0 0 title-B.sym
C 47600 47300 1 0 0 STPS5045S.sym
{
T 47900 48100 5 10 1 1 0 0 1
refdes=X1
T 47900 47900 5 10 1 1 0 0 1
device=STPS50U100CR
}
C 43900 46800 1 0 0 vpulse-1.sym
{
T 44600 47650 5 10 0 0 0 0 1
device=vpulse
T 44600 47850 5 10 0 0 0 0 1
footprint=none
T 44600 47450 5 10 1 1 0 0 1
refdes=V2
T 44400 46650 5 10 1 1 0 0 1
value=pulse 0 10 0m 100u 100u 500u 1000u
}
C 48900 45700 1 0 0 gnd-1.sym
C 49100 46400 1 90 0 resistor-1.sym
{
T 48700 46700 5 10 0 0 90 0 1
device=RESISTOR
T 48800 46600 5 10 1 1 90 0 1
refdes=R1
T 49100 46400 5 10 1 1 0 0 1
value=1k
}
N 49000 46000 49000 46400 4
N 49000 47300 49000 47500 4
N 49000 47500 48500 47500 4
N 47600 48100 47600 47500 4
N 44200 48000 44200 48100 4
N 44200 48100 47600 48100 4
N 44200 46800 44200 46000 4
N 44200 46000 49000 46000 4
C 40200 40000 1 0 0 spice-model-1.sym
{
T 40300 40700 5 10 0 1 0 0 1
device=STPS50U100CR
T 40300 40600 5 10 1 1 0 0 1
refdes=x2
T 41500 40300 5 10 1 1 0 0 1
model-name=STPS50U100CR
T 40700 40100 5 10 1 1 0 0 1
file=/home/flindt/git/gedaPflSymbols/models/ST_POWER_SCHOTTKY_V6.LIB
}
