v 20201211 2
C 40000 40000 0 0 0 title-B.sym
C 44600 44700 1 0 0 vdc-1.sym
{
T 45300 45350 5 10 1 1 0 0 1
refdes=V1
T 45300 45550 5 10 0 0 0 0 1
device=VOLTAGE_SOURCE
T 45300 45750 5 10 0 0 0 0 1
footprint=none
T 45300 45150 5 10 1 1 0 0 1
value=DC 60V
}
C 48500 42200 1 0 0 gnd-1.sym
C 44800 43800 1 0 0 gnd-1.sym
C 50600 43800 1 0 0 gnd-1.sym
C 47800 42700 1 0 0 vdc-1.sym
{
T 48500 43350 5 10 1 1 0 0 1
refdes=V2
T 48500 43550 5 10 0 0 0 0 1
device=VOLTAGE_SOURCE
T 48500 43750 5 10 0 0 0 0 1
footprint=none
T 48500 43150 5 10 1 1 0 0 1
value=DC 3V
}
C 47100 44900 1 90 0 resistor-1.sym
{
T 46700 45200 5 10 0 0 90 0 1
device=RESISTOR
T 46800 45100 5 10 1 1 90 0 1
refdes=R1
T 47100 44900 5 10 1 1 0 0 1
value=1000
}
C 50800 44300 1 90 0 resistor-1.sym
{
T 50400 44600 5 10 0 0 90 0 1
device=RESISTOR
T 50500 44500 5 10 1 1 90 0 1
refdes=R2
T 50800 44300 5 10 1 1 0 0 1
value=15k
}
C 49200 43500 1 90 0 resistor-1.sym
{
T 48800 43800 5 10 0 0 90 0 1
device=RESISTOR
T 48900 43700 5 10 1 1 90 0 1
refdes=R3
T 49200 43500 5 10 1 1 0 0 1
value=15k
}
N 47000 42500 49100 42500 4
N 48100 42500 48100 42700 4
N 48100 43900 48100 44600 4
N 48100 44600 48200 44600 4
N 49100 42500 49100 43500 4
N 49100 44400 49100 44600 4
N 48700 44600 48700 42500 4
N 50700 44100 50700 44300 4
N 47000 46200 47000 45800 4
N 44900 44100 44900 44700 4
N 44900 45900 44900 46200 4
C 40500 49900 1 0 0 spice-model-1.sym
{
T 40600 50600 5 10 0 1 0 0 1
device=model
T 40600 50500 5 10 1 1 0 0 1
refdes=A1
T 41800 50200 5 10 1 1 0 0 1
model-name=INA170
T 41000 50000 5 10 1 1 0 0 1
file=./../../models/INA170.LIB
}
N 50700 45200 50700 45400 4
{
T 50700 45200 5 10 1 0 0 0 1
netname=output
}
N 50700 45400 49500 45400 4
C 46700 42800 1 0 0 idc-1.sym
{
T 47400 43450 5 10 1 1 0 0 1
refdes=I1
T 47400 43650 5 10 0 0 0 0 1
device=CURRENT_SOURCE
T 47400 43850 5 10 0 0 0 0 1
footprint=none
T 46000 43150 5 10 1 1 0 0 1
value=DC 0A
}
N 47000 42500 47000 42800 4
N 47800 45600 47400 45600 4
N 47400 44600 47000 44600 4
N 47000 44000 47000 44900 4
C 40500 49200 1 0 0 spice-directive-1.sym
{
T 40600 49500 5 10 0 1 0 0 1
device=directive
T 40600 49600 5 10 1 1 0 0 1
refdes=A2
T 40600 49300 5 10 1 1 0 0 1
file=ngspiceCommands.run
}
N 47800 45200 47400 45200 4
N 47400 45200 47400 44600 4
N 47400 45600 47400 46200 4
C 49200 47000 1 0 0 vdc-1.sym
{
T 49900 47650 5 10 1 1 0 0 1
refdes=V3
T 49900 47850 5 10 0 0 0 0 1
device=VOLTAGE_SOURCE
T 49900 48050 5 10 0 0 0 0 1
footprint=none
T 49900 47450 5 10 1 1 0 0 1
value=DC 3.3V
}
C 49400 46400 1 0 0 gnd-1.sym
N 49500 46700 49500 47000 4
N 49500 48200 49500 48300 4
N 49500 48300 48700 48300 4
N 48700 48300 48700 46200 4
N 44900 46200 47400 46200 4
C 47800 44600 1 0 0 INA170.sym
{
T 48000 46600 5 10 0 0 0 0 1
device=INA170
T 49400 46000 5 10 1 1 0 0 1
refdes=X1
T 48000 47200 5 10 0 0 0 0 1
symversion=0.1
T 49400 45800 5 10 1 1 0 0 1
model-name=INA170
}
